com\fidz\core\model\TravelType.class
com\fidz\core\service\DeviceService.class
com\fidz\core\comp\MqttRecevier.class
com\fidz\core\comp\MqttRecevier$1.class
com\fidz\core\exception\LocationDataNotFoundException.class
com\fidz\core\model\LocationData.class
com\fidz\core\property\WebProperties.class
com\fidz\core\validation\Validation.class
com\fidz\core\PlatformCoreApplication.class
com\fidz\core\comp\MqttRecevier$1$1.class
com\fidz\core\model\ObjectType.class
com\fidz\core\dao\LocationDataDAO.class
com\fidz\core\model\PayloadValidate.class
