INDEX VERSION 1.131+E:\Ashok\Vecrear Ashok\Vecrear Multi Module Project\.metadata\.plugins\org.eclipse.jdt.core
3271590577.index
3560232097.index
3879773639.index
2239658544.index
1451957317.index
2830093648.index
1158928043.index
375550185.index
2629941168.index
3918402320.index
2415570489.index
2948062742.index
814028312.index
2820703383.index
105664348.index
2792112484.index
1046042467.index
391141953.index
3644471681.index
2447257195.index
788313675.index
3700041280.index
1462534825.index
851236935.index
588683220.index
2358221408.index
3116911423.index
2182821092.index
399026960.index
3165040556.index
1219230411.index
2925435963.index
1566930527.index
242517347.index
2323613141.index
1252131505.index
3018569388.index
2461409427.index
4108589024.index
2061673946.index
2800138570.index
570373571.index
331394316.index
3961335137.index
4261290257.index
2757027782.index
2795092352.index
1389570320.index
1828769344.index
4013880972.index
1733140246.index
1485832250.index
650106434.index
1966944624.index
3021610461.index
3018500571.index
2282809048.index
396937460.index
2526183824.index
2128813226.index
1866840950.index
3931092787.index
2709497916.index
655249689.index
1539400070.index
3784189954.index
920982642.index
625709545.index
3910286785.index
2292904464.index
179431391.index
2487276290.index
2212006848.index
3760125788.index
4139994882.index
2791302955.index
2101146485.index
2765380036.index
485030349.index
984536733.index
377476497.index
3540863861.index
2036550201.index
3600801524.index
3121283806.index
1709272356.index
1946068178.index
3944784247.index
3563986639.index
1013272744.index
242646855.index
4183729541.index
2073014036.index
1415421483.index
95456000.index
1832930979.index
3234703385.index
2078100081.index
3909109336.index
198564038.index
2246872649.index
52700425.index
432783776.index
2153928423.index
618196743.index
3999685962.index
3966576747.index
105002164.index
1348498846.index
4282121489.index
1325012363.index
563571156.index
3925811907.index
4123388866.index
1435642981.index
3966483729.index
2712815832.index
3105516391.index
221077108.index
4283689392.index
3743031030.index
3570863457.index
1547692549.index
1692839084.index
344577485.index
3867490729.index
1971217682.index
604647885.index
1020253724.index
2485967645.index
1049858725.index
2758028738.index
2951538200.index
4219445297.index
2889883912.index
1033180910.index
1728844270.index
2477731259.index
4147178321.index
903257529.index
657907325.index
666986548.index
2677959782.index
2676196189.index
3594232234.index
221314456.index
3105420010.index
34708004.index
2892087108.index
3347465275.index
527954664.index
1682307010.index
2769565628.index
3499154498.index
1054415882.index
3799408625.index
4050892169.index
2586982573.index
1076962244.index
381289427.index
1012913553.index
1584170823.index
1932952554.index
3385958267.index
2350029142.index
2408990550.index
3486387878.index
3079516570.index
2619689787.index
521783163.index
3786350874.index
2378670909.index
2865322443.index
